\relax 
\bibstyle{plainnat}
\citation{michie1963experiments}
\@writefile{toc}{\contentsline {section}{\numberline {1}Introduction}{4}\protected@file@percent }
\citation{bouton1901nim}
\@writefile{toc}{\contentsline {section}{\numberline {2}Nim, Nim+, and some variants}{5}\protected@file@percent }
\newlabel{sec:game}{{2}{5}}
\@writefile{toc}{\contentsline {subsection}{\numberline {2.1}Third level: full analysis}{8}\protected@file@percent }
\@writefile{toc}{\contentsline {section}{\numberline {3}Workshop}{11}\protected@file@percent }
\newlabel{sec:workshop}{{3}{11}}
\@writefile{lof}{\contentsline {figure}{\numberline {1}{\ignorespaces A public installment of the workshop: on the blackboard the instructions of the algorithm described above are written. However, we noticed that the public is not generally and more humanly explanations are needed.}}{12}\protected@file@percent }
\@writefile{lof}{\contentsline {figure}{\numberline {2}{\ignorespaces Scheme of game}}{13}\protected@file@percent }
\@writefile{toc}{\contentsline {subsection}{\numberline {3.1}Reinforcement and pruning}{14}\protected@file@percent }
\@writefile{toc}{\contentsline {section}{\numberline {4}Coding the workshop}{14}\protected@file@percent }
\newlabel{sec:code1}{{4}{14}}
\@writefile{toc}{\contentsline {section}{\numberline {5}Combinatorics}{14}\protected@file@percent }
\newlabel{sec:combinatorics}{{5}{14}}
\@writefile{toc}{\contentsline {subsection}{\numberline {5.1}Number of boxes (configurations)}{15}\protected@file@percent }
\newlabel{ex:count}{{3}{16}}
\@writefile{toc}{\contentsline {subsection}{\numberline {5.2}Number of colors}{19}\protected@file@percent }
\@writefile{toc}{\contentsline {subsection}{\numberline {5.3}Representing configurations: states}{20}\protected@file@percent }
\@writefile{toc}{\contentsline {subsection}{\numberline {5.4}Number of games}{21}\protected@file@percent }
\citation{schwalbe2001zermelo}
\@writefile{toc}{\contentsline {section}{\numberline {6}Game theory}{23}\protected@file@percent }
\newlabel{sec:strategy}{{6}{23}}
\@writefile{toc}{\contentsline {subsection}{\numberline {6.1}Determinism}{24}\protected@file@percent }
\newlabel{determinism}{{6.1}{24}}
\@writefile{toc}{\contentsline {subsection}{\numberline {6.2}Determining a state's winnability}{24}\protected@file@percent }
\@writefile{lof}{\contentsline {figure}{\numberline {3}{\ignorespaces A winning state, a losing state, an uncertain state.}}{25}\protected@file@percent }
\@writefile{toc}{\contentsline {subsection}{\numberline {6.3}Winning moves}{29}\protected@file@percent }
\@writefile{toc}{\contentsline {subsection}{\numberline {6.4}Strategies}{29}\protected@file@percent }
\newlabel{general-strategy}{{6.4}{29}}
\@writefile{toc}{\contentsline {subsection}{\numberline {6.5}Nim and Nim+: the bitwise XOR criterion}{29}\protected@file@percent }
\@writefile{toc}{\contentsline {subsection}{\numberline {6.6}AntiNim}{29}\protected@file@percent }
\@writefile{toc}{\contentsline {subsection}{\numberline {6.7}AntiNim+}{29}\protected@file@percent }
\@writefile{lof}{\contentsline {figure}{\numberline {4}{\ignorespaces For level $\ell = 15$, a scatter plot of the possible moves of Nim, in black, and of the extra moves of Nim+, in red.}}{30}\protected@file@percent }
\@writefile{lof}{\contentsline {figure}{\numberline {5}{\ignorespaces For level $\ell = 13$, a scatter plot of the winning moves of Nim, in black, and of the extra winning moves of Nim+, in red.}}{31}\protected@file@percent }
\newlabel{th:singlets}{{8}{32}}
\newlabel{th:duplets}{{9}{32}}
\newlabel{th:triplets}{{10}{32}}
\citation{wilmott2019machine}
\@writefile{toc}{\contentsline {subsection}{\numberline {6.8}Relationship to traditional Nim}{36}\protected@file@percent }
\newlabel{sec:tradnim}{{6.8}{36}}
\@writefile{toc}{\contentsline {section}{\numberline {7}Coding higher levels}{36}\protected@file@percent }
\newlabel{sec:code2}{{7}{36}}
\@writefile{toc}{\contentsline {subsection}{\numberline {7.1}Optimizing the algorithm}{36}\protected@file@percent }
\@writefile{toc}{\contentsline {section}{\numberline {8}About machine learning}{36}\protected@file@percent }
\@writefile{toc}{\contentsline {section}{\numberline {9}Conclusions}{36}\protected@file@percent }
\newlabel{sec:conclusions}{{9}{36}}
\citation{katz2017manufacturing}
\citation{collins2018artifictional}
\citation{atashpendar2016sequencing}
\bibdata{biblio}
\bibcite{atashpendar2016sequencing}{{1}{2016}{{Atashpendar et~al.}}{{Atashpendar, Schilling, and Voigtmann}}}
\bibcite{bouton1901nim}{{2}{1901}{{Bouton}}{{}}}
\@writefile{toc}{\contentsline {subsection}{\numberline {9.1}Pedagogical potentialities}{37}\protected@file@percent }
\@writefile{toc}{\contentsline {subsection}{\numberline {9.2}Scientific interest}{37}\protected@file@percent }
\@writefile{toc}{\contentsline {subsection}{\numberline {9.3}Literature review.}{37}\protected@file@percent }
\@writefile{toc}{\contentsline {section}{\numberline {10}About the authors}{37}\protected@file@percent }
\@writefile{toc}{\contentsline {section}{\numberline {11}Acknowledgements}{37}\protected@file@percent }
\bibcite{collins2018artifictional}{{3}{2018}{{Collins}}{{}}}
\bibcite{katz2017manufacturing}{{4}{2017}{{Katz}}{{}}}
\bibcite{michie1963experiments}{{5}{1963}{{Michie}}{{}}}
\bibcite{schwalbe2001zermelo}{{6}{2001}{{Schwalbe and Walker}}{{}}}
\bibcite{wilmott2019machine}{{7}{2019}{{Wilmott}}{{}}}
\@writefile{toc}{\contentsline {section}{\numberline {A}Learning workshop protocol}{39}\protected@file@percent }
\@writefile{toc}{\contentsline {section}{\numberline {B}Building workshop protocol}{40}\protected@file@percent }
\@writefile{toc}{\contentsline {section}{\numberline {C}Coding workshop protocol}{41}\protected@file@percent }
