\begin{thebibliography}{7}
\providecommand{\natexlab}[1]{#1}
\providecommand{\url}[1]{\texttt{#1}}
\expandafter\ifx\csname urlstyle\endcsname\relax
  \providecommand{\doi}[1]{doi: #1}\else
  \providecommand{\doi}{doi: \begingroup \urlstyle{rm}\Url}\fi

\bibitem[Atashpendar et~al.(2016)Atashpendar, Schilling, and
  Voigtmann]{atashpendar2016sequencing}
Arshia Atashpendar, Tanja Schilling, and Thomas Voigtmann.
\newblock Sequencing chess.
\newblock \emph{EPL (Europhysics Letters)}, 116\penalty0 (1):\penalty0 10009,
  2016.

\bibitem[Bouton(1901)]{bouton1901nim}
Charles~L Bouton.
\newblock Nim, a game with a complete mathematical theory.
\newblock \emph{The Annals of Mathematics}, 3\penalty0 (1/4):\penalty0 35--39,
  1901.

\bibitem[Collins(2018)]{collins2018artifictional}
Harry Collins.
\newblock \emph{Artifictional intelligence: against humanity's surrender to
  computers}.
\newblock John Wiley \& Sons, 2018.

\bibitem[Katz(2017)]{katz2017manufacturing}
Yarden Katz.
\newblock Manufacturing an artificial intelligence revolution.
\newblock \emph{Available at SSRN 3078224}, 2017.

\bibitem[Michie(1963)]{michie1963experiments}
Donald Michie.
\newblock Experiments on the mechanization of game-learning part i.
  characterization of the model and its parameters.
\newblock \emph{The Computer Journal}, 6\penalty0 (3):\penalty0 232--236, 1963.

\bibitem[Schwalbe and Walker(2001)]{schwalbe2001zermelo}
Ulrich Schwalbe and Paul Walker.
\newblock Zermelo and the early history of game theory.
\newblock \emph{Games and economic behavior}, 34\penalty0 (1):\penalty0
  123--137, 2001.

\bibitem[Wilmott(2019)]{wilmott2019machine}
Paul Wilmott.
\newblock \emph{Machine learning: an applied mathematics introduction}.
\newblock Panda Ohana Publishing, 2019.

\end{thebibliography}
